Overview of janitor functions • janitor
…
Minor functions

Smaller functions for use in particular situations. More human-readable than the equivalent code they replace.

Cleaning

Manipulate vectors of names with make_clean_names()

Like base R’s make.names(), but with the stylings and case choice of the long-time janitor function clean_names(). While clean_names() is still offered for use in data.frame pipeline with %>%, make_clean_names() allows for more general usage, e.g., on a vector.

It can also be used as an argument to .name_repair in the newest version of tibble::as_tibble:

tibble::as_tibble(iris, .name_repair = janitor::make_clean_names)
#> # A tibble: 150 x 5
#>    sepal_length sepal_width petal_length petal_width species
#>           <dbl>       <dbl>        <dbl>       <dbl> <fct>  
#>  1          5.1         3.5          1.4         0.2 setosa 
#>  2          4.9         3            1.4         0.2 setosa 
#>  3          4.7         3.2          1.3         0.2 setosa 
#>  4          4.6         3.1          1.5         0.2 setosa 
#>  5          5           3.6          1.4         0.2 setosa 
#>  6          5.4         3.9          1.7         0.4 setosa 
#>  7          4.6         3.4          1.4         0.3 setosa 
#>  8          5           3.4          1.5         0.2 setosa 
#>  9          4.4         2.9          1.4         0.2 setosa 
#> 10          4.9         3.1          1.5         0.1 setosa 
#> # … with 140 more rows
…
